1 10 20
1 100 119
100 1 119
1 100 119
1 1000 179
3 7 17
7 3 17
13 27 112
27 13 112
100 270 128
200 200 27
1 10000 262
2300 30000 308
1238 8212 262
8212 1238 262
3378 2312 217
1223 4622 238
3333 4533 238
106 235 128
24 164 122
233 108 128
155 44 122
45 129 122
32 25 112
129 227 125
269 24 128
4 104 119
181 189 107
124 28 119
34 81 116
12 103 119
83 113 119
148 223 125
84 35 116
196 245 128
259 33 128
191 6 125
177 98 125
30 67 113
155 12 122
220 114 125
17 188 125
250 130 128
17 48 112
17 128 119
248 19 128
91 202 125
12 84 116
90 135 122
122 220 125
248 242 110
154 137 117
184 82 125
160 88 122
220 38 125
245 11 128
62 252 128
164 153 112
232 10 128
1 34 112
22 270 128
188 153 125
260 109 128
151 110 122
250 224 128
19 30 112
205 71 125
150 16 122
247 236 97
62 85 116
171 134 125
2711 1621 209
2510 2146 209
2670 1534 209
1870 1905 175
1488 2372 183
1880 380 182
676 2536 209
728 2446 183
2673 1822 209
2888 427 209
2399 697 183
2289 1090 183
367 1941 182
2008 1059 182
2867 2240 209
1524 2593 209
1192 1844 180
1209 578 182
1504 335 182
2531 1043 209
2517 1020 209
1728 1962 180
2490 2161 209
389 1687 182
2440 563 183
1744 917 182
2180 1389 180
2318 1144 183
465 546 142
884 1189 182
2069 674 182
6646 6414 244
6430 7905 257
216 5812 238
4248 3191 238
8990 7443 252
6792 8808 257
4291 3346 238
783 93219 351
93219 783 351
59117 940 340
955 33491 308
5792 6858 262
4160 9414 262
9047 6089 262
